newmtl full
Ka 1.000000 1.000000 1.000000
Kd 1.000000 1.000000 1.000000
Ks 0.000000 0.000000 0.000000
Tr 1.000000
illum 1
Ns 0.000000
map_Kd full.png

newmtl empty
Ka 1.000000 1.000000 1.000000
Kd 1.000000 1.000000 1.000000
Ks 0.000000 0.000000 0.000000
Tr 1.000000
illum 1
Ns 0.000000
map_Kd empty.png

newmtl end
Ka 1.000000 1.000000 1.000000
Kd 1.000000 1.000000 1.000000
Ks 0.000000 0.000000 0.000000
Tr 1.000000
illum 1
Ns 0.000000
map_Kd end.png

newmtl start
Ka 1.000000 1.000000 1.000000
Kd 1.000000 1.000000 1.000000
Ks 0.000000 0.000000 0.000000
Tr 1.000000
illum 1
Ns 0.000000
map_Kd start.png

newmtl you
Ka 1.000000 1.000000 1.000000
Kd 1.000000 1.000000 1.000000
Ks 0.000000 0.000000 0.000000
Tr 1.000000
illum 1
Ns 0.000000
map_Kd you.png
